…
    ##        key                              value query_key   query_val
    ## *    <chr>                              <chr>     <chr>       <chr>
    ## 1   mntner                        MAINT-AS237    mntner maint-as237
    ## 2    descr                Merit Network, Inc.    mntner maint-as237
    ## 3  admin-c                         MICHN-ARIN    mntner maint-as237
    ## 4   tech-c                         MICHN-ARIN    mntner maint-as237
    ## 5   upd-to           routing-notify@merit.edu    mntner maint-as237
    ## 6  mnt-nfy           routing-notify@merit.edu    mntner maint-as237
    ## 7     auth             CRYPT-PW HIDDENCRYPTPW    mntner maint-as237
    ## 8   mnt-by                        MAINT-AS237    mntner maint-as237
    ## 9  changed ljb@merit.edu 20150427  #13:51:01Z    mntner maint-as237
    ## 10  source                               RADB    mntner maint-as237
    ## 
    ## $search_res
    ## # A tibble: 26 × 4
    ##        key                                      value         cidr option
    ## *    <chr>                                      <chr>        <chr>  <chr>
    ## 1    route                               108.0.0.0/16 108.0.0.0/16      l
    ## 2    descr Frontier Communications (ARIN OrgID: FRTR) 108.0.0.0/16      l
    ## 3   origin                                     AS5650 108.0.0.0/16      l
    ## 4  remarks                                            108.0.0.0/16      l
    ## 5  remarks                 -- Operational Contacts -- 108.0.0.0/16      l
    ## 6  remarks         Abuse / UCE: abuse@frontiernet.net 108.0.0.0/16      l
    ## 7  remarks       NOC / Maint: support@frontiernet.net 108.0.0.0/16      l
    ## 8  remarks           BGP Routing: bgp@frontiernet.net 108.0.0.0/16      l
    ## 9  remarks                                            108.0.0.0/16      l
    ## 10 remarks                                            108.0.0.0/16      l
    ## # ... with 16 more rows
    ## 
    ## attr(,"class")
    ## [1] "radb"
